C:\Development\netbeans\gbservice\gbservice\src\main\java\com\gb\dto\StudentDTO.java
C:\Development\netbeans\gbservice\gbservice\src\main\java\com\gb\dto\StudentList.java
C:\Development\netbeans\gbservice\gbservice\src\main\java\com\gb\services\StudentApplication.java
C:\Development\netbeans\gbservice\gbservice\src\main\java\com\gb\services\GradeBookResource.java
C:\Development\netbeans\gbservice\gbservice\src\main\java\com\gb\services\GradeBookResourceService.java
C:\Development\netbeans\gbservice\gbservice\src\main\java\com\gb\dto\GradeBookDTO.java
C:\Development\netbeans\gbservice\gbservice\src\main\java\com\gb\dto\GradeBookList.java
